{
    "edges": [
        {
            "incident_nodes": [
                0,
                9
            ]
        },
        {
            "incident_nodes": [
                0,
                5
            ]
        },
        {
            "incident_nodes": [
                0,
                1
            ]
        },
        {
            "incident_nodes": [
                1,
                9
            ]
        },
        {
            "incident_nodes": [
                1,
                8
            ]
        },
        {
            "incident_nodes": [
                1,
                3
            ]
        },
        {
            "incident_nodes": [
                2,
                8
            ]
        },
        {
            "incident_nodes": [
                2,
                7
            ]
        },
        {
            "incident_nodes": [
                2,
                4
            ]
        },
        {
            "incident_nodes": [
                2,
                3
            ]
        },
        {
            "incident_nodes": [
                3,
                6
            ]
        },
        {
            "incident_nodes": [
                3,
                7
            ]
        },
        {
            "incident_nodes": [
                3,
                8
            ]
        },
        {
            "incident_nodes": [
                4,
                9
            ]
        },
        {
            "incident_nodes": [
                5,
                9
            ]
        },
        {
            "incident_nodes": [
                5,
                6
            ]
        },
        {
            "incident_nodes": [
                6,
                7
            ]
        },
        {
            "incident_nodes": [
                6,
                9
            ]
        },
        {
            "incident_nodes": [
                6,
                8
            ]
        },
        {
            "incident_nodes": [
                7,
                9
            ]
        }
    ],
    "nodes": [
        {
            "coordinates": [
                0.4548408951980731,
                1.0
            ],
            "index": 0
        },
        {
            "coordinates": [
                -0.3235094352769928,
                0.4584022882650384
            ],
            "index": 1
        },
        {
            "coordinates": [
                -0.1443720731261962,
                -0.9153343278764527
            ],
            "index": 2
        },
        {
            "coordinates": [
                -0.4311920234084008,
                -0.38896277292627796
            ],
            "index": 3
        },
        {
            "coordinates": [
                0.7270665794346665,
                -0.7025901646727626
            ],
            "index": 4
        },
        {
            "coordinates": [
                0.07545084283547693,
                0.8958405421575534
            ],
            "index": 5
        },
        {
            "coordinates": [
                -0.16172975268379552,
                0.09717138857334036
            ],
            "index": 6
        },
        {
            "coordinates": [
                0.16555895481215185,
                -0.4428320058019667
            ],
            "index": 7
        },
        {
            "coordinates": [
                -0.7822221683759443,
                -0.2323132521523553
            ],
            "index": 8
        },
        {
            "coordinates": [
                0.4201081805909613,
                0.2306183044338826
            ],
            "index": 9
        }
    ]
}