{
    "graph": {
        "edge_data": {
            "edge_count": 20,
            "edges": [
                {
                    "incident_nodes": [
                        0,
                        9
                    ]
                },
                {
                    "incident_nodes": [
                        0,
                        5
                    ]
                },
                {
                    "incident_nodes": [
                        0,
                        1
                    ]
                },
                {
                    "incident_nodes": [
                        1,
                        9
                    ]
                },
                {
                    "incident_nodes": [
                        1,
                        8
                    ]
                },
                {
                    "incident_nodes": [
                        1,
                        3
                    ]
                },
                {
                    "incident_nodes": [
                        2,
                        8
                    ]
                },
                {
                    "incident_nodes": [
                        2,
                        7
                    ]
                },
                {
                    "incident_nodes": [
                        2,
                        4
                    ]
                },
                {
                    "incident_nodes": [
                        2,
                        3
                    ]
                },
                {
                    "incident_nodes": [
                        3,
                        6
                    ]
                },
                {
                    "incident_nodes": [
                        3,
                        7
                    ]
                },
                {
                    "incident_nodes": [
                        3,
                        8
                    ]
                },
                {
                    "incident_nodes": [
                        4,
                        9
                    ]
                },
                {
                    "incident_nodes": [
                        5,
                        9
                    ]
                },
                {
                    "incident_nodes": [
                        5,
                        6
                    ]
                },
                {
                    "incident_nodes": [
                        6,
                        7
                    ]
                },
                {
                    "incident_nodes": [
                        6,
                        9
                    ]
                },
                {
                    "incident_nodes": [
                        6,
                        8
                    ]
                },
                {
                    "incident_nodes": [
                        7,
                        9
                    ]
                }
            ]
        },
        "ink": 14.324019706751624,
        "node_data": {
            "node_count": 10,
            "nodes": [
                {
                    "coordinates": [
                        0.4548408951980731,
                        1.0
                    ],
                    "index": 0
                },
                {
                    "coordinates": [
                        -0.3235094352769928,
                        0.4584022882650384
                    ],
                    "index": 1
                },
                {
                    "coordinates": [
                        -0.1443720731261962,
                        -0.9153343278764527
                    ],
                    "index": 2
                },
                {
                    "coordinates": [
                        -0.4311920234084008,
                        -0.38896277292627796
                    ],
                    "index": 3
                },
                {
                    "coordinates": [
                        0.7270665794346665,
                        -0.7025901646727626
                    ],
                    "index": 4
                },
                {
                    "coordinates": [
                        0.07545084283547693,
                        0.8958405421575534
                    ],
                    "index": 5
                },
                {
                    "coordinates": [
                        -0.16172975268379552,
                        0.09717138857334036
                    ],
                    "index": 6
                },
                {
                    "coordinates": [
                        0.16555895481215185,
                        -0.4428320058019667
                    ],
                    "index": 7
                },
                {
                    "coordinates": [
                        -0.7822221683759443,
                        -0.2323132521523553
                    ],
                    "index": 8
                },
                {
                    "coordinates": [
                        0.4201081805909613,
                        0.2306183044338826
                    ],
                    "index": 9
                }
            ]
        }
    },
    "intersection": {
        "delta_count": {
            "0": 14,
            "1": 4,
            "2": 2
        },
        "edge_count": 4,
        "edges": [
            {
                "incident_nodes": [
                    2,
                    14
                ]
            },
            {
                "incident_nodes": [
                    2,
                    15
                ]
            },
            {
                "incident_nodes": [
                    3,
                    15
                ]
            },
            {
                "incident_nodes": [
                    5,
                    18
                ]
            }
        ],
        "node_count": 20,
        "nodes": [
            {
                "delta": 0,
                "index": 0
            },
            {
                "delta": 0,
                "index": 1
            },
            {
                "delta": 2,
                "index": 2
            },
            {
                "delta": 1,
                "index": 3
            },
            {
                "delta": 0,
                "index": 4
            },
            {
                "delta": 1,
                "index": 5
            },
            {
                "delta": 0,
                "index": 6
            },
            {
                "delta": 0,
                "index": 7
            },
            {
                "delta": 0,
                "index": 8
            },
            {
                "delta": 0,
                "index": 9
            },
            {
                "delta": 0,
                "index": 10
            },
            {
                "delta": 0,
                "index": 11
            },
            {
                "delta": 0,
                "index": 12
            },
            {
                "delta": 0,
                "index": 13
            },
            {
                "delta": 1,
                "index": 14
            },
            {
                "delta": 2,
                "index": 15
            },
            {
                "delta": 0,
                "index": 16
            },
            {
                "delta": 0,
                "index": 17
            },
            {
                "delta": 1,
                "index": 18
            },
            {
                "delta": 0,
                "index": 19
            }
        ]
    },
    "result": {
        "edges": [
            {
                "incident_nodes": [
                    4,
                    9
                ],
                "stub": [
                    0.5,
                    0.5
                ]
            },
            {
                "incident_nodes": [
                    3,
                    7
                ],
                "stub": [
                    0.5,
                    0.5
                ]
            },
            {
                "incident_nodes": [
                    1,
                    9
                ],
                "stub": [
                    0.33164890004193126,
                    0.6683510999580687
                ]
            },
            {
                "incident_nodes": [
                    5,
                    9
                ],
                "stub": [
                    0.17659979246917257,
                    0.8234002075308274
                ]
            },
            {
                "incident_nodes": [
                    0,
                    1
                ],
                "stub": [
                    0.5,
                    0.5
                ]
            },
            {
                "incident_nodes": [
                    5,
                    6
                ],
                "stub": [
                    0.25224509310045523,
                    0.7477549068995448
                ]
            },
            {
                "incident_nodes": [
                    3,
                    6
                ],
                "stub": [
                    0.5,
                    0.5
                ]
            },
            {
                "incident_nodes": [
                    1,
                    3
                ],
                "stub": [
                    0.5,
                    0.5
                ]
            },
            {
                "incident_nodes": [
                    6,
                    8
                ],
                "stub": [
                    0.3589299456682376,
                    0.6410700543317625
                ]
            },
            {
                "incident_nodes": [
                    2,
                    7
                ],
                "stub": [
                    0.5,
                    0.5
                ]
            },
            {
                "incident_nodes": [
                    2,
                    4
                ],
                "stub": [
                    0.5,
                    0.5
                ]
            },
            {
                "incident_nodes": [
                    2,
                    3
                ],
                "stub": [
                    0.5,
                    0.5
                ]
            },
            {
                "incident_nodes": [
                    6,
                    9
                ],
                "stub": [
                    0.5,
                    0.5
                ]
            },
            {
                "incident_nodes": [
                    7,
                    9
                ],
                "stub": [
                    0.5,
                    0.5
                ]
            },
            {
                "incident_nodes": [
                    1,
                    8
                ],
                "stub": [
                    0.5,
                    0.5
                ]
            },
            {
                "incident_nodes": [
                    0,
                    5
                ],
                "stub": [
                    0.5,
                    0.5
                ]
            },
            {
                "incident_nodes": [
                    6,
                    7
                ],
                "stub": [
                    0.5,
                    0.5
                ]
            },
            {
                "incident_nodes": [
                    2,
                    8
                ],
                "stub": [
                    0.5,
                    0.5
                ]
            },
            {
                "incident_nodes": [
                    0,
                    9
                ],
                "stub": [
                    0.5,
                    0.5
                ]
            },
            {
                "incident_nodes": [
                    3,
                    8
                ],
                "stub": [
                    0.5,
                    0.5
                ]
            }
        ],
        "ink": 14.324019706751626,
        "symmetric": false,
        "tree_width": 1
    },
    "success": true,
    "time": {
        "algorithm": 0.009595499999999979,
        "init_datastructure": 0.004309000000000007,
        "tree_decomposition": 0.04382129999999995
    }
}