{
    "graph_0": {
        "edges": [
            {
                "incident_nodes": [
                    0,
                    10
                ]
            },
            {
                "incident_nodes": [
                    0,
                    6
                ]
            },
            {
                "incident_nodes": [
                    0,
                    18
                ]
            },
            {
                "incident_nodes": [
                    1,
                    13
                ]
            },
            {
                "incident_nodes": [
                    1,
                    6
                ]
            },
            {
                "incident_nodes": [
                    1,
                    10
                ]
            },
            {
                "incident_nodes": [
                    1,
                    7
                ]
            },
            {
                "incident_nodes": [
                    1,
                    2
                ]
            },
            {
                "incident_nodes": [
                    2,
                    15
                ]
            },
            {
                "incident_nodes": [
                    2,
                    19
                ]
            },
            {
                "incident_nodes": [
                    2,
                    8
                ]
            },
            {
                "incident_nodes": [
                    3,
                    9
                ]
            },
            {
                "incident_nodes": [
                    5,
                    12
                ]
            },
            {
                "incident_nodes": [
                    5,
                    11
                ]
            },
            {
                "incident_nodes": [
                    7,
                    10
                ]
            },
            {
                "incident_nodes": [
                    7,
                    18
                ]
            },
            {
                "incident_nodes": [
                    8,
                    12
                ]
            },
            {
                "incident_nodes": [
                    8,
                    10
                ]
            },
            {
                "incident_nodes": [
                    8,
                    9
                ]
            },
            {
                "incident_nodes": [
                    9,
                    11
                ]
            },
            {
                "incident_nodes": [
                    9,
                    17
                ]
            },
            {
                "incident_nodes": [
                    10,
                    13
                ]
            },
            {
                "incident_nodes": [
                    11,
                    17
                ]
            },
            {
                "incident_nodes": [
                    11,
                    14
                ]
            },
            {
                "incident_nodes": [
                    11,
                    19
                ]
            },
            {
                "incident_nodes": [
                    12,
                    14
                ]
            },
            {
                "incident_nodes": [
                    13,
                    16
                ]
            },
            {
                "incident_nodes": [
                    13,
                    14
                ]
            },
            {
                "incident_nodes": [
                    17,
                    18
                ]
            },
            {
                "incident_nodes": [
                    18,
                    19
                ]
            }
        ],
        "nodes": [
            {
                "coordinates": [
                    -0.18461241737739037,
                    -0.20539987986557764
                ],
                "index": 0
            },
            {
                "coordinates": [
                    -0.25825263152428535,
                    -0.01880296962101037
                ],
                "index": 1
            },
            {
                "coordinates": [
                    -0.15816785408141026,
                    0.08248978503162953
                ],
                "index": 2
            },
            {
                "coordinates": [
                    0.4527293401339903,
                    0.004861197091419126
                ],
                "index": 3
            },
            {
                "coordinates": [
                    0.6071413007782742,
                    -1.0
                ],
                "index": 4
            },
            {
                "coordinates": [
                    0.2644182422975459,
                    0.26829614325476286
                ],
                "index": 5
            },
            {
                "coordinates": [
                    -0.3373143860780813,
                    -0.18599350757422992
                ],
                "index": 6
            },
            {
                "coordinates": [
                    -0.15980077101520576,
                    -0.12931559345088764
                ],
                "index": 7
            },
            {
                "coordinates": [
                    0.03841105344675222,
                    0.10285302722931991
                ],
                "index": 8
            },
            {
                "coordinates": [
                    0.25966195477165194,
                    0.033665563373144136
                ],
                "index": 9
            },
            {
                "coordinates": [
                    -0.14510100077131427,
                    -0.013555036326160284
                ],
                "index": 10
            },
            {
                "coordinates": [
                    0.16379386557479056,
                    0.11237353637401354
                ],
                "index": 11
            },
            {
                "coordinates": [
                    0.13345671497333775,
                    0.27160009742571734
                ],
                "index": 12
            },
            {
                "coordinates": [
                    -0.19502830629822931,
                    0.17670005697260613
                ],
                "index": 13
            },
            {
                "coordinates": [
                    0.010702698701476759,
                    0.24213045309632092
                ],
                "index": 14
            },
            {
                "coordinates": [
                    -0.35887366225111783,
                    0.1449005879606965
                ],
                "index": 15
            },
            {
                "coordinates": [
                    -0.30889859815682297,
                    0.34134784835793874
                ],
                "index": 16
            },
            {
                "coordinates": [
                    0.17110598331448207,
                    -0.06782922297701442
                ],
                "index": 17
            },
            {
                "coordinates": [
                    -0.011485198610623526,
                    -0.15815599797536561
                ],
                "index": 18
            },
            {
                "coordinates": [
                    0.016113672172179308,
                    -0.0021660883773235917
                ],
                "index": 19
            }
        ]
    },
    "graph_1": {
        "edges": [
            {
                "incident_nodes": [
                    0,
                    10
                ]
            },
            {
                "incident_nodes": [
                    0,
                    7
                ]
            },
            {
                "incident_nodes": [
                    1,
                    15
                ]
            },
            {
                "incident_nodes": [
                    1,
                    14
                ]
            },
            {
                "incident_nodes": [
                    2,
                    10
                ]
            },
            {
                "incident_nodes": [
                    2,
                    14
                ]
            },
            {
                "incident_nodes": [
                    2,
                    17
                ]
            },
            {
                "incident_nodes": [
                    2,
                    8
                ]
            },
            {
                "incident_nodes": [
                    3,
                    15
                ]
            },
            {
                "incident_nodes": [
                    4,
                    7
                ]
            },
            {
                "incident_nodes": [
                    5,
                    7
                ]
            },
            {
                "incident_nodes": [
                    5,
                    14
                ]
            },
            {
                "incident_nodes": [
                    6,
                    8
                ]
            },
            {
                "incident_nodes": [
                    6,
                    15
                ]
            },
            {
                "incident_nodes": [
                    7,
                    14
                ]
            },
            {
                "incident_nodes": [
                    7,
                    13
                ]
            },
            {
                "incident_nodes": [
                    8,
                    9
                ]
            },
            {
                "incident_nodes": [
                    8,
                    17
                ]
            },
            {
                "incident_nodes": [
                    9,
                    10
                ]
            },
            {
                "incident_nodes": [
                    9,
                    15
                ]
            },
            {
                "incident_nodes": [
                    9,
                    17
                ]
            },
            {
                "incident_nodes": [
                    10,
                    11
                ]
            },
            {
                "incident_nodes": [
                    10,
                    13
                ]
            },
            {
                "incident_nodes": [
                    11,
                    16
                ]
            },
            {
                "incident_nodes": [
                    12,
                    16
                ]
            },
            {
                "incident_nodes": [
                    13,
                    16
                ]
            },
            {
                "incident_nodes": [
                    14,
                    16
                ]
            },
            {
                "incident_nodes": [
                    15,
                    19
                ]
            },
            {
                "incident_nodes": [
                    16,
                    18
                ]
            },
            {
                "incident_nodes": [
                    17,
                    18
                ]
            }
        ],
        "nodes": [
            {
                "coordinates": [
                    -0.24518061454719303,
                    -0.41974534532550556
                ],
                "index": 0
            },
            {
                "coordinates": [
                    0.40691635267294696,
                    -0.023650409550679475
                ],
                "index": 1
            },
            {
                "coordinates": [
                    -0.022469111221321156,
                    0.15200275294019375
                ],
                "index": 2
            },
            {
                "coordinates": [
                    0.9202452380197301,
                    0.5825712950250195
                ],
                "index": 3
            },
            {
                "coordinates": [
                    -0.2303880274356624,
                    -1.0
                ],
                "index": 4
            },
            {
                "coordinates": [
                    0.06279845068876011,
                    -0.5966598873559018
                ],
                "index": 5
            },
            {
                "coordinates": [
                    0.47408591605769074,
                    0.6065727664729305
                ],
                "index": 6
            },
            {
                "coordinates": [
                    -0.18213985027514243,
                    -0.6190792080947431
                ],
                "index": 7
            },
            {
                "coordinates": [
                    0.1594319415266173,
                    0.4763560351771997
                ],
                "index": 8
            },
            {
                "coordinates": [
                    0.17522250762856054,
                    0.26735727777901397
                ],
                "index": 9
            },
            {
                "coordinates": [
                    -0.21275840945205762,
                    -0.04381428580270444
                ],
                "index": 10
            },
            {
                "coordinates": [
                    -0.5761996781496316,
                    0.05664801423545928
                ],
                "index": 11
            },
            {
                "coordinates": [
                    -0.8951642710981159,
                    -0.13444205104559834
                ],
                "index": 12
            },
            {
                "coordinates": [
                    -0.402891981629342,
                    -0.3459116832363162
                ],
                "index": 13
            },
            {
                "coordinates": [
                    -0.02045885110960713,
                    -0.24449091030025594
                ],
                "index": 14
            },
            {
                "coordinates": [
                    0.6250330532245963,
                    0.33989334295129336
                ],
                "index": 15
            },
            {
                "coordinates": [
                    -0.49505118546210675,
                    -0.09170693554590421
                ],
                "index": 16
            },
            {
                "coordinates": [
                    -0.10068965133172302,
                    0.4084997492942063
                ],
                "index": 17
            },
            {
                "coordinates": [
                    -0.43904315898639557,
                    0.29923650791980055
                ],
                "index": 18
            },
            {
                "coordinates": [
                    0.9987013308793956,
                    0.33036297446249246
                ],
                "index": 19
            }
        ]
    },
    "graph_2": {
        "edges": [
            {
                "incident_nodes": [
                    0,
                    13
                ]
            },
            {
                "incident_nodes": [
                    0,
                    8
                ]
            },
            {
                "incident_nodes": [
                    0,
                    2
                ]
            },
            {
                "incident_nodes": [
                    1,
                    5
                ]
            },
            {
                "incident_nodes": [
                    2,
                    11
                ]
            },
            {
                "incident_nodes": [
                    2,
                    3
                ]
            },
            {
                "incident_nodes": [
                    2,
                    7
                ]
            },
            {
                "incident_nodes": [
                    2,
                    19
                ]
            },
            {
                "incident_nodes": [
                    3,
                    8
                ]
            },
            {
                "incident_nodes": [
                    4,
                    15
                ]
            },
            {
                "incident_nodes": [
                    5,
                    6
                ]
            },
            {
                "incident_nodes": [
                    5,
                    16
                ]
            },
            {
                "incident_nodes": [
                    6,
                    19
                ]
            },
            {
                "incident_nodes": [
                    6,
                    14
                ]
            },
            {
                "incident_nodes": [
                    7,
                    19
                ]
            },
            {
                "incident_nodes": [
                    8,
                    9
                ]
            },
            {
                "incident_nodes": [
                    8,
                    10
                ]
            },
            {
                "incident_nodes": [
                    9,
                    16
                ]
            },
            {
                "incident_nodes": [
                    9,
                    19
                ]
            },
            {
                "incident_nodes": [
                    10,
                    15
                ]
            },
            {
                "incident_nodes": [
                    10,
                    11
                ]
            },
            {
                "incident_nodes": [
                    10,
                    12
                ]
            },
            {
                "incident_nodes": [
                    10,
                    19
                ]
            },
            {
                "incident_nodes": [
                    11,
                    19
                ]
            },
            {
                "incident_nodes": [
                    13,
                    14
                ]
            },
            {
                "incident_nodes": [
                    13,
                    16
                ]
            },
            {
                "incident_nodes": [
                    13,
                    15
                ]
            },
            {
                "incident_nodes": [
                    14,
                    15
                ]
            },
            {
                "incident_nodes": [
                    14,
                    16
                ]
            },
            {
                "incident_nodes": [
                    17,
                    18
                ]
            }
        ],
        "nodes": [
            {
                "coordinates": [
                    -0.06639750972335633,
                    0.12719315147385252
                ],
                "index": 0
            },
            {
                "coordinates": [
                    -0.02130707046568725,
                    -0.44475732497059833
                ],
                "index": 1
            },
            {
                "coordinates": [
                    -0.22579288067453696,
                    0.1557503557804206
                ],
                "index": 2
            },
            {
                "coordinates": [
                    -0.1893678225212009,
                    0.2669854569139878
                ],
                "index": 3
            },
            {
                "coordinates": [
                    0.18762706735597348,
                    0.09288773098836428
                ],
                "index": 4
            },
            {
                "coordinates": [
                    -0.046476214394699414,
                    -0.299030918034287
                ],
                "index": 5
            },
            {
                "coordinates": [
                    -0.11449284092098654,
                    -0.1589043988881768
                ],
                "index": 6
            },
            {
                "coordinates": [
                    -0.3401022738252693,
                    0.12112253593843281
                ],
                "index": 7
            },
            {
                "coordinates": [
                    -0.13545859729964185,
                    0.14098076980069998
                ],
                "index": 8
            },
            {
                "coordinates": [
                    -0.11584786311919935,
                    -0.023316658305655654
                ],
                "index": 9
            },
            {
                "coordinates": [
                    -0.16462362141482922,
                    0.04362617254423098
                ],
                "index": 10
            },
            {
                "coordinates": [
                    -0.2754428948498692,
                    0.08455429129397352
                ],
                "index": 11
            },
            {
                "coordinates": [
                    -0.3193991084302292,
                    -0.03747445586068394
                ],
                "index": 12
            },
            {
                "coordinates": [
                    0.014033355499942135,
                    -0.01779204659885812
                ],
                "index": 13
            },
            {
                "coordinates": [
                    0.022328565764195563,
                    -0.09811281380190306
                ],
                "index": 14
            },
            {
                "coordinates": [
                    0.04135981723677489,
                    0.0386847798606969
                ],
                "index": 15
            },
            {
                "coordinates": [
                    -0.023659048109740177,
                    -0.15320423280765386
                ],
                "index": 16
            },
            {
                "coordinates": [
                    0.9990337853359341,
                    0.1172411907254514
                ],
                "index": 17
            },
            {
                "coordinates": [
                    1.0,
                    0.03428705800288702
                ],
                "index": 18
            },
            {
                "coordinates": [
                    -0.22601484544357456,
                    0.009279355944819573
                ],
                "index": 19
            }
        ]
    },
    "graph_3": {
        "edges": [
            {
                "incident_nodes": [
                    0,
                    15
                ]
            },
            {
                "incident_nodes": [
                    0,
                    19
                ]
            },
            {
                "incident_nodes": [
                    1,
                    16
                ]
            },
            {
                "incident_nodes": [
                    1,
                    17
                ]
            },
            {
                "incident_nodes": [
                    1,
                    5
                ]
            },
            {
                "incident_nodes": [
                    2,
                    13
                ]
            },
            {
                "incident_nodes": [
                    2,
                    18
                ]
            },
            {
                "incident_nodes": [
                    2,
                    17
                ]
            },
            {
                "incident_nodes": [
                    2,
                    11
                ]
            },
            {
                "incident_nodes": [
                    2,
                    8
                ]
            },
            {
                "incident_nodes": [
                    2,
                    9
                ]
            },
            {
                "incident_nodes": [
                    3,
                    14
                ]
            },
            {
                "incident_nodes": [
                    3,
                    6
                ]
            },
            {
                "incident_nodes": [
                    4,
                    7
                ]
            },
            {
                "incident_nodes": [
                    4,
                    9
                ]
            },
            {
                "incident_nodes": [
                    4,
                    11
                ]
            },
            {
                "incident_nodes": [
                    5,
                    14
                ]
            },
            {
                "incident_nodes": [
                    5,
                    6
                ]
            },
            {
                "incident_nodes": [
                    5,
                    13
                ]
            },
            {
                "incident_nodes": [
                    5,
                    10
                ]
            },
            {
                "incident_nodes": [
                    7,
                    18
                ]
            },
            {
                "incident_nodes": [
                    7,
                    17
                ]
            },
            {
                "incident_nodes": [
                    8,
                    10
                ]
            },
            {
                "incident_nodes": [
                    8,
                    12
                ]
            },
            {
                "incident_nodes": [
                    8,
                    16
                ]
            },
            {
                "incident_nodes": [
                    9,
                    11
                ]
            },
            {
                "incident_nodes": [
                    12,
                    14
                ]
            },
            {
                "incident_nodes": [
                    13,
                    15
                ]
            },
            {
                "incident_nodes": [
                    16,
                    17
                ]
            },
            {
                "incident_nodes": [
                    16,
                    19
                ]
            }
        ],
        "nodes": [
            {
                "coordinates": [
                    -0.6257282084528144,
                    -0.6479731313335961
                ],
                "index": 0
            },
            {
                "coordinates": [
                    0.04109270560742669,
                    -0.086911873894797
                ],
                "index": 1
            },
            {
                "coordinates": [
                    -0.15966315606154569,
                    0.31373193481577005
                ],
                "index": 2
            },
            {
                "coordinates": [
                    1.0,
                    -0.5233325552544127
                ],
                "index": 3
            },
            {
                "coordinates": [
                    -0.4645435558698405,
                    0.841481813774207
                ],
                "index": 4
            },
            {
                "coordinates": [
                    0.39716748571633576,
                    -0.31466988198200935
                ],
                "index": 5
            },
            {
                "coordinates": [
                    0.7295422167867275,
                    -0.5623111672447395
                ],
                "index": 6
            },
            {
                "coordinates": [
                    -0.5269425295137077,
                    0.5351902361933657
                ],
                "index": 7
            },
            {
                "coordinates": [
                    0.1958724636614548,
                    0.09817208628034368
                ],
                "index": 8
            },
            {
                "coordinates": [
                    -0.19863193339539992,
                    0.7368593966193657
                ],
                "index": 9
            },
            {
                "coordinates": [
                    0.43381120465384254,
                    -0.0696121298694039
                ],
                "index": 10
            },
            {
                "coordinates": [
                    -0.3143198851054986,
                    0.673839237902642
                ],
                "index": 11
            },
            {
                "coordinates": [
                    0.6310373264701147,
                    0.015776697595337667
                ],
                "index": 12
            },
            {
                "coordinates": [
                    -0.047983134812639855,
                    -0.23132384202229678
                ],
                "index": 13
            },
            {
                "coordinates": [
                    0.7791329623098194,
                    -0.28612234483669674
                ],
                "index": 14
            },
            {
                "coordinates": [
                    -0.3269651878365574,
                    -0.5725267210715012
                ],
                "index": 15
            },
            {
                "coordinates": [
                    -0.20651855415504536,
                    -0.09102045149897275
                ],
                "index": 16
            },
            {
                "coordinates": [
                    -0.2816621137437551,
                    0.17626864408606924
                ],
                "index": 17
            },
            {
                "coordinates": [
                    -0.5257525045902259,
                    0.3707305602308247
                ],
                "index": 18
            },
            {
                "coordinates": [
                    -0.5289456016686909,
                    -0.37624650848949914
                ],
                "index": 19
            }
        ]
    },
    "graph_4": {
        "edges": [
            {
                "incident_nodes": [
                    0,
                    14
                ]
            },
            {
                "incident_nodes": [
                    0,
                    5
                ]
            },
            {
                "incident_nodes": [
                    1,
                    17
                ]
            },
            {
                "incident_nodes": [
                    1,
                    3
                ]
            },
            {
                "incident_nodes": [
                    1,
                    13
                ]
            },
            {
                "incident_nodes": [
                    2,
                    7
                ]
            },
            {
                "incident_nodes": [
                    2,
                    17
                ]
            },
            {
                "incident_nodes": [
                    3,
                    11
                ]
            },
            {
                "incident_nodes": [
                    4,
                    14
                ]
            },
            {
                "incident_nodes": [
                    4,
                    6
                ]
            },
            {
                "incident_nodes": [
                    4,
                    16
                ]
            },
            {
                "incident_nodes": [
                    5,
                    7
                ]
            },
            {
                "incident_nodes": [
                    5,
                    10
                ]
            },
            {
                "incident_nodes": [
                    5,
                    9
                ]
            },
            {
                "incident_nodes": [
                    6,
                    13
                ]
            },
            {
                "incident_nodes": [
                    7,
                    9
                ]
            },
            {
                "incident_nodes": [
                    7,
                    14
                ]
            },
            {
                "incident_nodes": [
                    8,
                    9
                ]
            },
            {
                "incident_nodes": [
                    9,
                    19
                ]
            },
            {
                "incident_nodes": [
                    9,
                    16
                ]
            },
            {
                "incident_nodes": [
                    9,
                    10
                ]
            },
            {
                "incident_nodes": [
                    10,
                    15
                ]
            },
            {
                "incident_nodes": [
                    11,
                    17
                ]
            },
            {
                "incident_nodes": [
                    11,
                    12
                ]
            },
            {
                "incident_nodes": [
                    12,
                    19
                ]
            },
            {
                "incident_nodes": [
                    13,
                    18
                ]
            },
            {
                "incident_nodes": [
                    14,
                    15
                ]
            },
            {
                "incident_nodes": [
                    16,
                    17
                ]
            },
            {
                "incident_nodes": [
                    17,
                    19
                ]
            },
            {
                "incident_nodes": [
                    18,
                    19
                ]
            }
        ],
        "nodes": [
            {
                "coordinates": [
                    0.09605898977968552,
                    -0.8583707617982391
                ],
                "index": 0
            },
            {
                "coordinates": [
                    0.27024257742406343,
                    0.7067007675532283
                ],
                "index": 1
            },
            {
                "coordinates": [
                    -0.1304294906402013,
                    0.03139358763462256
                ],
                "index": 2
            },
            {
                "coordinates": [
                    0.12435992436871583,
                    1.0
                ],
                "index": 3
            },
            {
                "coordinates": [
                    0.38240141488319174,
                    -0.2358267701759912
                ],
                "index": 4
            },
            {
                "coordinates": [
                    -0.15809062527425383,
                    -0.6008856862632727
                ],
                "index": 5
            },
            {
                "coordinates": [
                    0.6279068374532354,
                    0.09473982222904331
                ],
                "index": 6
            },
            {
                "coordinates": [
                    -0.08131061497031146,
                    -0.3606526375707226
                ],
                "index": 7
            },
            {
                "coordinates": [
                    -0.6723978743730692,
                    -0.3182277122640427
                ],
                "index": 8
            },
            {
                "coordinates": [
                    -0.2867724598082188,
                    -0.2514783950325955
                ],
                "index": 9
            },
            {
                "coordinates": [
                    -0.34616574982468634,
                    -0.6587933855101239
                ],
                "index": 10
            },
            {
                "coordinates": [
                    -0.10409039067656917,
                    0.7914553952937572
                ],
                "index": 11
            },
            {
                "coordinates": [
                    -0.3367297963054541,
                    0.630057184220591
                ],
                "index": 12
            },
            {
                "coordinates": [
                    0.5133100914274195,
                    0.4547962127516434
                ],
                "index": 13
            },
            {
                "coordinates": [
                    0.15262844936342024,
                    -0.607204762199903
                ],
                "index": 14
            },
            {
                "coordinates": [
                    -0.11992261530163291,
                    -0.8807165648599347
                ],
                "index": 15
            },
            {
                "coordinates": [
                    0.06482934605166413,
                    -0.027610925863768017
                ],
                "index": 16
            },
            {
                "coordinates": [
                    -0.008187918893308577,
                    0.39700108800509726
                ],
                "index": 17
            },
            {
                "coordinates": [
                    0.20420637326364008,
                    0.42054825666873147
                ],
                "index": 18
            },
            {
                "coordinates": [
                    -0.1918464679473305,
                    0.27307528718187896
                ],
                "index": 19
            }
        ]
    },
    "graph_5": {
        "edges": [
            {
                "incident_nodes": [
                    0,
                    7
                ]
            },
            {
                "incident_nodes": [
                    0,
                    14
                ]
            },
            {
                "incident_nodes": [
                    0,
                    8
                ]
            },
            {
                "incident_nodes": [
                    0,
                    2
                ]
            },
            {
                "incident_nodes": [
                    1,
                    18
                ]
            },
            {
                "incident_nodes": [
                    1,
                    5
                ]
            },
            {
                "incident_nodes": [
                    1,
                    3
                ]
            },
            {
                "incident_nodes": [
                    2,
                    9
                ]
            },
            {
                "incident_nodes": [
                    2,
                    5
                ]
            },
            {
                "incident_nodes": [
                    2,
                    14
                ]
            },
            {
                "incident_nodes": [
                    2,
                    12
                ]
            },
            {
                "incident_nodes": [
                    2,
                    4
                ]
            },
            {
                "incident_nodes": [
                    4,
                    11
                ]
            },
            {
                "incident_nodes": [
                    5,
                    13
                ]
            },
            {
                "incident_nodes": [
                    5,
                    14
                ]
            },
            {
                "incident_nodes": [
                    5,
                    9
                ]
            },
            {
                "incident_nodes": [
                    6,
                    18
                ]
            },
            {
                "incident_nodes": [
                    7,
                    18
                ]
            },
            {
                "incident_nodes": [
                    7,
                    8
                ]
            },
            {
                "incident_nodes": [
                    8,
                    9
                ]
            },
            {
                "incident_nodes": [
                    8,
                    16
                ]
            },
            {
                "incident_nodes": [
                    8,
                    15
                ]
            },
            {
                "incident_nodes": [
                    10,
                    13
                ]
            },
            {
                "incident_nodes": [
                    10,
                    16
                ]
            },
            {
                "incident_nodes": [
                    10,
                    17
                ]
            },
            {
                "incident_nodes": [
                    10,
                    12
                ]
            },
            {
                "incident_nodes": [
                    11,
                    17
                ]
            },
            {
                "incident_nodes": [
                    13,
                    17
                ]
            },
            {
                "incident_nodes": [
                    15,
                    17
                ]
            },
            {
                "incident_nodes": [
                    15,
                    16
                ]
            }
        ],
        "nodes": [
            {
                "coordinates": [
                    -0.08862484786872786,
                    0.03972872393894799
                ],
                "index": 0
            },
            {
                "coordinates": [
                    -0.30448084946152315,
                    0.2998636380709281
                ],
                "index": 1
            },
            {
                "coordinates": [
                    -0.1605577929068247,
                    -0.2135927467946712
                ],
                "index": 2
            },
            {
                "coordinates": [
                    -0.4927353293703315,
                    0.44300556200095476
                ],
                "index": 3
            },
            {
                "coordinates": [
                    -0.08606826228464332,
                    -0.5164956546386755
                ],
                "index": 4
            },
            {
                "coordinates": [
                    -0.18854504872422867,
                    -0.01615588374046877
                ],
                "index": 5
            },
            {
                "coordinates": [
                    -0.15936875795222896,
                    0.7151971832822059
                ],
                "index": 6
            },
            {
                "coordinates": [
                    -0.008817867545593747,
                    0.2523039975561421
                ],
                "index": 7
            },
            {
                "coordinates": [
                    0.12638667698924616,
                    0.01602835920546875
                ],
                "index": 8
            },
            {
                "coordinates": [
                    -0.04620175852527683,
                    -0.06910178643976592
                ],
                "index": 9
            },
            {
                "coordinates": [
                    0.09993167092986793,
                    -0.3589096059804505
                ],
                "index": 10
            },
            {
                "coordinates": [
                    0.11527629191510755,
                    -0.6103601213617931
                ],
                "index": 11
            },
            {
                "coordinates": [
                    -0.11944945665378857,
                    -0.3991698317468714
                ],
                "index": 12
            },
            {
                "coordinates": [
                    0.020706416266606045,
                    -0.24549992403158583
                ],
                "index": 13
            },
            {
                "coordinates": [
                    -0.282107613865009,
                    -0.07357625358038636
                ],
                "index": 14
            },
            {
                "coordinates": [
                    0.31811283598887585,
                    -0.1752843171314501
                ],
                "index": 15
            },
            {
                "coordinates": [
                    0.22392598573913838,
                    -0.1709981949903542
                ],
                "index": 16
            },
            {
                "coordinates": [
                    0.21481099336672332,
                    -0.3983143556070855
                ],
                "index": 17
            },
            {
                "coordinates": [
                    -0.1503876781702928,
                    0.48133121198891204
                ],
                "index": 18
            },
            {
                "coordinates": [
                    0.9681943921329035,
                    1.0
                ],
                "index": 19
            }
        ]
    },
    "graph_6": {
        "edges": [
            {
                "incident_nodes": [
                    0,
                    14
                ]
            },
            {
                "incident_nodes": [
                    0,
                    12
                ]
            },
            {
                "incident_nodes": [
                    0,
                    13
                ]
            },
            {
                "incident_nodes": [
                    0,
                    2
                ]
            },
            {
                "incident_nodes": [
                    1,
                    19
                ]
            },
            {
                "incident_nodes": [
                    1,
                    2
                ]
            },
            {
                "incident_nodes": [
                    1,
                    5
                ]
            },
            {
                "incident_nodes": [
                    2,
                    13
                ]
            },
            {
                "incident_nodes": [
                    2,
                    18
                ]
            },
            {
                "incident_nodes": [
                    2,
                    9
                ]
            },
            {
                "incident_nodes": [
                    2,
                    7
                ]
            },
            {
                "incident_nodes": [
                    2,
                    3
                ]
            },
            {
                "incident_nodes": [
                    2,
                    17
                ]
            },
            {
                "incident_nodes": [
                    3,
                    10
                ]
            },
            {
                "incident_nodes": [
                    3,
                    16
                ]
            },
            {
                "incident_nodes": [
                    4,
                    15
                ]
            },
            {
                "incident_nodes": [
                    4,
                    8
                ]
            },
            {
                "incident_nodes": [
                    4,
                    12
                ]
            },
            {
                "incident_nodes": [
                    5,
                    15
                ]
            },
            {
                "incident_nodes": [
                    5,
                    7
                ]
            },
            {
                "incident_nodes": [
                    6,
                    14
                ]
            },
            {
                "incident_nodes": [
                    7,
                    18
                ]
            },
            {
                "incident_nodes": [
                    7,
                    19
                ]
            },
            {
                "incident_nodes": [
                    8,
                    19
                ]
            },
            {
                "incident_nodes": [
                    8,
                    14
                ]
            },
            {
                "incident_nodes": [
                    9,
                    12
                ]
            },
            {
                "incident_nodes": [
                    15,
                    17
                ]
            },
            {
                "incident_nodes": [
                    15,
                    18
                ]
            },
            {
                "incident_nodes": [
                    17,
                    19
                ]
            },
            {
                "incident_nodes": [
                    18,
                    19
                ]
            }
        ],
        "nodes": [
            {
                "coordinates": [
                    0.01829865370048738,
                    0.11410038706908292
                ],
                "index": 0
            },
            {
                "coordinates": [
                    -0.19526114053499605,
                    -0.09931368822835213
                ],
                "index": 1
            },
            {
                "coordinates": [
                    -0.03275476231448052,
                    -0.0663336534934438
                ],
                "index": 2
            },
            {
                "coordinates": [
                    0.09453048895437263,
                    -0.24881969685449218
                ],
                "index": 3
            },
            {
                "coordinates": [
                    -0.16981942245841175,
                    0.15167840725602574
                ],
                "index": 4
            },
            {
                "coordinates": [
                    -0.2808721615689802,
                    -0.11225043379484685
                ],
                "index": 5
            },
            {
                "coordinates": [
                    0.14513993977547468,
                    0.377377159604783
                ],
                "index": 6
            },
            {
                "coordinates": [
                    -0.1535510049806391,
                    -0.13166790592056904
                ],
                "index": 7
            },
            {
                "coordinates": [
                    -0.06323202415781974,
                    0.17515466020566833
                ],
                "index": 8
            },
            {
                "coordinates": [
                    -0.0928345293309684,
                    0.0828992341843277
                ],
                "index": 9
            },
            {
                "coordinates": [
                    0.21231593935573023,
                    -0.3273707013036798
                ],
                "index": 10
            },
            {
                "coordinates": [
                    1.0,
                    0.08261994349201844
                ],
                "index": 11
            },
            {
                "coordinates": [
                    -0.12106342082918294,
                    0.1988153475879038
                ],
                "index": 12
            },
            {
                "coordinates": [
                    0.08105483170594377,
                    0.010907039501003515
                ],
                "index": 13
            },
            {
                "coordinates": [
                    0.060653387596123765,
                    0.25950611399973844
                ],
                "index": 14
            },
            {
                "coordinates": [
                    -0.22983375075780044,
                    0.00849356122586165
                ],
                "index": 15
            },
            {
                "coordinates": [
                    0.12430772580387897,
                    -0.3874933017984157
                ],
                "index": 16
            },
            {
                "coordinates": [
                    -0.10342599246296598,
                    -0.024296323283944248
                ],
                "index": 17
            },
            {
                "coordinates": [
                    -0.1466027522561029,
                    -0.07146320124440193
                ],
                "index": 18
            },
            {
                "coordinates": [
                    -0.14705000523966386,
                    0.007457051795733171
                ],
                "index": 19
            }
        ]
    },
    "graph_7": {
        "edges": [
            {
                "incident_nodes": [
                    0,
                    1
                ]
            },
            {
                "incident_nodes": [
                    0,
                    7
                ]
            },
            {
                "incident_nodes": [
                    0,
                    9
                ]
            },
            {
                "incident_nodes": [
                    0,
                    19
                ]
            },
            {
                "incident_nodes": [
                    0,
                    14
                ]
            },
            {
                "incident_nodes": [
                    1,
                    3
                ]
            },
            {
                "incident_nodes": [
                    1,
                    16
                ]
            },
            {
                "incident_nodes": [
                    1,
                    6
                ]
            },
            {
                "incident_nodes": [
                    2,
                    4
                ]
            },
            {
                "incident_nodes": [
                    4,
                    18
                ]
            },
            {
                "incident_nodes": [
                    4,
                    12
                ]
            },
            {
                "incident_nodes": [
                    4,
                    9
                ]
            },
            {
                "incident_nodes": [
                    4,
                    6
                ]
            },
            {
                "incident_nodes": [
                    6,
                    8
                ]
            },
            {
                "incident_nodes": [
                    7,
                    13
                ]
            },
            {
                "incident_nodes": [
                    7,
                    17
                ]
            },
            {
                "incident_nodes": [
                    7,
                    11
                ]
            },
            {
                "incident_nodes": [
                    8,
                    18
                ]
            },
            {
                "incident_nodes": [
                    8,
                    16
                ]
            },
            {
                "incident_nodes": [
                    8,
                    13
                ]
            },
            {
                "incident_nodes": [
                    8,
                    10
                ]
            },
            {
                "incident_nodes": [
                    9,
                    10
                ]
            },
            {
                "incident_nodes": [
                    10,
                    14
                ]
            },
            {
                "incident_nodes": [
                    10,
                    16
                ]
            },
            {
                "incident_nodes": [
                    12,
                    16
                ]
            },
            {
                "incident_nodes": [
                    12,
                    15
                ]
            },
            {
                "incident_nodes": [
                    12,
                    13
                ]
            },
            {
                "incident_nodes": [
                    14,
                    17
                ]
            },
            {
                "incident_nodes": [
                    16,
                    17
                ]
            },
            {
                "incident_nodes": [
                    17,
                    18
                ]
            }
        ],
        "nodes": [
            {
                "coordinates": [
                    0.09215532031715233,
                    -0.2526180857933739
                ],
                "index": 0
            },
            {
                "coordinates": [
                    -0.01664773368101048,
                    -0.2371401322218791
                ],
                "index": 1
            },
            {
                "coordinates": [
                    -0.3798996344247176,
                    0.06720578424868986
                ],
                "index": 2
            },
            {
                "coordinates": [
                    -0.02532274562602022,
                    -0.4600875984002244
                ],
                "index": 3
            },
            {
                "coordinates": [
                    -0.14709453832990887,
                    0.05215024899692786
                ],
                "index": 4
            },
            {
                "coordinates": [
                    0.9628497685647075,
                    1.0
                ],
                "index": 5
            },
            {
                "coordinates": [
                    -0.10286501660357665,
                    -0.0751106754279307
                ],
                "index": 6
            },
            {
                "coordinates": [
                    -0.15428105506909753,
                    -0.16725417815573151
                ],
                "index": 7
            },
            {
                "coordinates": [
                    -0.011052867559668035,
                    0.08417958345915055
                ],
                "index": 8
            },
            {
                "coordinates": [
                    0.07928609336764302,
                    -0.07447996892893213
                ],
                "index": 9
            },
            {
                "coordinates": [
                    0.16522706021249092,
                    0.02972066450014562
                ],
                "index": 10
            },
            {
                "coordinates": [
                    -0.3544277609797511,
                    -0.2611822233033732
                ],
                "index": 11
            },
            {
                "coordinates": [
                    -0.1348513996645267,
                    0.22287882582536606
                ],
                "index": 12
            },
            {
                "coordinates": [
                    -0.20112678592263966,
                    0.0733716710383857
                ],
                "index": 13
            },
            {
                "coordinates": [
                    0.19515638377556813,
                    -0.12293223162459442
                ],
                "index": 14
            },
            {
                "coordinates": [
                    -0.17540200708058656,
                    0.4362241414954684
                ],
                "index": 15
            },
            {
                "coordinates": [
                    0.021269356577144335,
                    0.023494991390231555
                ],
                "index": 16
            },
            {
                "coordinates": [
                    0.0036432813211155126,
                    -0.061144068475639884
                ],
                "index": 17
            },
            {
                "coordinates": [
                    -0.05389169278538064,
                    0.13930378925385922
                ],
                "index": 18
            },
            {
                "coordinates": [
                    0.23727597359106128,
                    -0.4165805378765467
                ],
                "index": 19
            }
        ]
    },
    "graph_8": {
        "edges": [
            {
                "incident_nodes": [
                    0,
                    19
                ]
            },
            {
                "incident_nodes": [
                    0,
                    17
                ]
            },
            {
                "incident_nodes": [
                    0,
                    2
                ]
            },
            {
                "incident_nodes": [
                    1,
                    5
                ]
            },
            {
                "incident_nodes": [
                    1,
                    9
                ]
            },
            {
                "incident_nodes": [
                    1,
                    19
                ]
            },
            {
                "incident_nodes": [
                    2,
                    6
                ]
            },
            {
                "incident_nodes": [
                    2,
                    10
                ]
            },
            {
                "incident_nodes": [
                    2,
                    16
                ]
            },
            {
                "incident_nodes": [
                    3,
                    14
                ]
            },
            {
                "incident_nodes": [
                    4,
                    6
                ]
            },
            {
                "incident_nodes": [
                    4,
                    8
                ]
            },
            {
                "incident_nodes": [
                    4,
                    18
                ]
            },
            {
                "incident_nodes": [
                    4,
                    5
                ]
            },
            {
                "incident_nodes": [
                    4,
                    11
                ]
            },
            {
                "incident_nodes": [
                    5,
                    18
                ]
            },
            {
                "incident_nodes": [
                    5,
                    7
                ]
            },
            {
                "incident_nodes": [
                    5,
                    19
                ]
            },
            {
                "incident_nodes": [
                    5,
                    13
                ]
            },
            {
                "incident_nodes": [
                    6,
                    18
                ]
            },
            {
                "incident_nodes": [
                    7,
                    16
                ]
            },
            {
                "incident_nodes": [
                    8,
                    11
                ]
            },
            {
                "incident_nodes": [
                    9,
                    17
                ]
            },
            {
                "incident_nodes": [
                    9,
                    14
                ]
            },
            {
                "incident_nodes": [
                    10,
                    12
                ]
            },
            {
                "incident_nodes": [
                    12,
                    13
                ]
            },
            {
                "incident_nodes": [
                    12,
                    17
                ]
            },
            {
                "incident_nodes": [
                    13,
                    15
                ]
            },
            {
                "incident_nodes": [
                    13,
                    17
                ]
            },
            {
                "incident_nodes": [
                    15,
                    16
                ]
            }
        ],
        "nodes": [
            {
                "coordinates": [
                    0.035393758211901126,
                    -0.08988692378081818
                ],
                "index": 0
            },
            {
                "coordinates": [
                    0.23586078053610376,
                    0.1242952510443442
                ],
                "index": 1
            },
            {
                "coordinates": [
                    -0.23641962183722035,
                    -0.18129499935766616
                ],
                "index": 2
            },
            {
                "coordinates": [
                    1.0,
                    0.16066076839657129
                ],
                "index": 3
            },
            {
                "coordinates": [
                    -0.3480564772398467,
                    0.33331344574684507
                ],
                "index": 4
            },
            {
                "coordinates": [
                    -0.08446381950686516,
                    0.09825092735081643
                ],
                "index": 5
            },
            {
                "coordinates": [
                    -0.3731908540128215,
                    0.09466637675194381
                ],
                "index": 6
            },
            {
                "coordinates": [
                    -0.2511891990250074,
                    -0.08738622475491391
                ],
                "index": 7
            },
            {
                "coordinates": [
                    -0.5297237342948623,
                    0.5075750031723342
                ],
                "index": 8
            },
            {
                "coordinates": [
                    0.4869375501595223,
                    0.01262551584192803
                ],
                "index": 9
            },
            {
                "coordinates": [
                    -0.14321137819033436,
                    -0.40288764236333047
                ],
                "index": 10
            },
            {
                "coordinates": [
                    -0.4309094188670951,
                    0.5703244023487317
                ],
                "index": 11
            },
            {
                "coordinates": [
                    0.10936071869499123,
                    -0.38006033749969015
                ],
                "index": 12
            },
            {
                "coordinates": [
                    0.04132138662727446,
                    -0.22326756556928187
                ],
                "index": 13
            },
            {
                "coordinates": [
                    0.7816032534090973,
                    0.09488428122913771
                ],
                "index": 14
            },
            {
                "coordinates": [
                    -0.08063180941331688,
                    -0.4547677819179409
                ],
                "index": 15
            },
            {
                "coordinates": [
                    -0.28466173926064453,
                    -0.3296087055869111
                ],
                "index": 16
            },
            {
                "coordinates": [
                    0.25073818533329323,
                    -0.18299705700368454
                ],
                "index": 17
            },
            {
                "coordinates": [
                    -0.2715204074196034,
                    0.224149027708307
                ],
                "index": 18
            },
            {
                "coordinates": [
                    0.09276282609543403,
                    0.11141223824327855
                ],
                "index": 19
            }
        ]
    },
    "graph_9": {
        "edges": [
            {
                "incident_nodes": [
                    0,
                    5
                ]
            },
            {
                "incident_nodes": [
                    0,
                    15
                ]
            },
            {
                "incident_nodes": [
                    0,
                    18
                ]
            },
            {
                "incident_nodes": [
                    1,
                    19
                ]
            },
            {
                "incident_nodes": [
                    2,
                    19
                ]
            },
            {
                "incident_nodes": [
                    2,
                    5
                ]
            },
            {
                "incident_nodes": [
                    3,
                    11
                ]
            },
            {
                "incident_nodes": [
                    3,
                    17
                ]
            },
            {
                "incident_nodes": [
                    4,
                    14
                ]
            },
            {
                "incident_nodes": [
                    4,
                    18
                ]
            },
            {
                "incident_nodes": [
                    4,
                    13
                ]
            },
            {
                "incident_nodes": [
                    5,
                    13
                ]
            },
            {
                "incident_nodes": [
                    6,
                    9
                ]
            },
            {
                "incident_nodes": [
                    6,
                    19
                ]
            },
            {
                "incident_nodes": [
                    7,
                    17
                ]
            },
            {
                "incident_nodes": [
                    7,
                    18
                ]
            },
            {
                "incident_nodes": [
                    9,
                    17
                ]
            },
            {
                "incident_nodes": [
                    10,
                    19
                ]
            },
            {
                "incident_nodes": [
                    10,
                    17
                ]
            },
            {
                "incident_nodes": [
                    10,
                    12
                ]
            },
            {
                "incident_nodes": [
                    11,
                    17
                ]
            },
            {
                "incident_nodes": [
                    12,
                    17
                ]
            },
            {
                "incident_nodes": [
                    12,
                    13
                ]
            },
            {
                "incident_nodes": [
                    12,
                    19
                ]
            },
            {
                "incident_nodes": [
                    13,
                    17
                ]
            },
            {
                "incident_nodes": [
                    13,
                    15
                ]
            },
            {
                "incident_nodes": [
                    14,
                    17
                ]
            },
            {
                "incident_nodes": [
                    16,
                    18
                ]
            },
            {
                "incident_nodes": [
                    16,
                    19
                ]
            },
            {
                "incident_nodes": [
                    17,
                    18
                ]
            }
        ],
        "nodes": [
            {
                "coordinates": [
                    -0.19602847469542198,
                    0.19727497630953258
                ],
                "index": 0
            },
            {
                "coordinates": [
                    0.28692174072424925,
                    0.16130077115518393
                ],
                "index": 1
            },
            {
                "coordinates": [
                    0.0714662995892259,
                    0.24561276512531785
                ],
                "index": 2
            },
            {
                "coordinates": [
                    -0.13353892731603093,
                    -0.2736333399589049
                ],
                "index": 3
            },
            {
                "coordinates": [
                    -0.2706164898012206,
                    0.002498873229977776
                ],
                "index": 4
            },
            {
                "coordinates": [
                    -0.08532042955892945,
                    0.2420558240916087
                ],
                "index": 5
            },
            {
                "coordinates": [
                    0.2137493940803858,
                    -0.05248905344544139
                ],
                "index": 6
            },
            {
                "coordinates": [
                    -0.1840302975912013,
                    -0.10035082764474094
                ],
                "index": 7
            },
            {
                "coordinates": [
                    1.0,
                    -0.26355216171046303
                ],
                "index": 8
            },
            {
                "coordinates": [
                    0.10228616646517308,
                    -0.15055609763136643
                ],
                "index": 9
            },
            {
                "coordinates": [
                    0.061309987544881206,
                    -0.0339823630759164
                ],
                "index": 10
            },
            {
                "coordinates": [
                    -0.06200510012031956,
                    -0.2769896854274022
                ],
                "index": 11
            },
            {
                "coordinates": [
                    -0.007784323438029692,
                    0.016648168485449942
                ],
                "index": 12
            },
            {
                "coordinates": [
                    -0.15215298145154685,
                    0.08685167431708124
                ],
                "index": 13
            },
            {
                "coordinates": [
                    -0.2625308996837806,
                    -0.1249127842658144
                ],
                "index": 14
            },
            {
                "coordinates": [
                    -0.2792844256693557,
                    0.2021455399245024
                ],
                "index": 15
            },
            {
                "coordinates": [
                    0.00045678063594155614,
                    0.11091175092534969
                ],
                "index": 16
            },
            {
                "coordinates": [
                    -0.08313313424653251,
                    -0.10495987914953551
                ],
                "index": 17
            },
            {
                "coordinates": [
                    -0.15374889441520423,
                    0.02676717782027755
                ],
                "index": 18
            },
            {
                "coordinates": [
                    0.1339840089477165,
                    0.08935867092530303
                ],
                "index": 19
            }
        ]
    }
}