{
    "edges": [
        {
            "incident_nodes": [
                0,
                19
            ]
        },
        {
            "incident_nodes": [
                0,
                9
            ]
        },
        {
            "incident_nodes": [
                1,
                11
            ]
        },
        {
            "incident_nodes": [
                1,
                9
            ]
        },
        {
            "incident_nodes": [
                1,
                3
            ]
        },
        {
            "incident_nodes": [
                2,
                12
            ]
        },
        {
            "incident_nodes": [
                2,
                16
            ]
        },
        {
            "incident_nodes": [
                2,
                6
            ]
        },
        {
            "incident_nodes": [
                2,
                3
            ]
        },
        {
            "incident_nodes": [
                3,
                14
            ]
        },
        {
            "incident_nodes": [
                3,
                10
            ]
        },
        {
            "incident_nodes": [
                3,
                6
            ]
        },
        {
            "incident_nodes": [
                3,
                4
            ]
        },
        {
            "incident_nodes": [
                4,
                5
            ]
        },
        {
            "incident_nodes": [
                4,
                12
            ]
        },
        {
            "incident_nodes": [
                5,
                9
            ]
        },
        {
            "incident_nodes": [
                5,
                11
            ]
        },
        {
            "incident_nodes": [
                5,
                13
            ]
        },
        {
            "incident_nodes": [
                6,
                12
            ]
        },
        {
            "incident_nodes": [
                7,
                18
            ]
        },
        {
            "incident_nodes": [
                8,
                10
            ]
        },
        {
            "incident_nodes": [
                8,
                14
            ]
        },
        {
            "incident_nodes": [
                8,
                16
            ]
        },
        {
            "incident_nodes": [
                8,
                15
            ]
        },
        {
            "incident_nodes": [
                9,
                11
            ]
        },
        {
            "incident_nodes": [
                11,
                18
            ]
        },
        {
            "incident_nodes": [
                11,
                12
            ]
        },
        {
            "incident_nodes": [
                12,
                19
            ]
        },
        {
            "incident_nodes": [
                12,
                18
            ]
        },
        {
            "incident_nodes": [
                14,
                17
            ]
        }
    ],
    "nodes": [
        {
            "coordinates": [
                -0.6735133474902876,
                0.31610007974624643
            ],
            "index": 0
        },
        {
            "coordinates": [
                -0.21789016703789071,
                0.10185975103394153
            ],
            "index": 1
        },
        {
            "coordinates": [
                0.2308199627334249,
                -0.03147505636036748
            ],
            "index": 2
        },
        {
            "coordinates": [
                0.190266570895118,
                0.08128655970179056
            ],
            "index": 3
        },
        {
            "coordinates": [
                -0.17172764917048008,
                -0.16659435123455715
            ],
            "index": 4
        },
        {
            "coordinates": [
                -0.5826049654126747,
                -0.18502850971121002
            ],
            "index": 5
        },
        {
            "coordinates": [
                0.10375674477505346,
                -0.12637336348087974
            ],
            "index": 6
        },
        {
            "coordinates": [
                -0.4504422331008975,
                -0.7331365961126834
            ],
            "index": 7
        },
        {
            "coordinates": [
                0.7434239146861973,
                0.3270792999375251
            ],
            "index": 8
        },
        {
            "coordinates": [
                -0.5454871591406502,
                0.0699241687461282
            ],
            "index": 9
        },
        {
            "coordinates": [
                0.4595307094985406,
                0.3351386174619753
            ],
            "index": 10
        },
        {
            "coordinates": [
                -0.4013462916823041,
                -0.12291380894971386
            ],
            "index": 11
        },
        {
            "coordinates": [
                -0.16116111810955705,
                -0.07207301905704538
            ],
            "index": 12
        },
        {
            "coordinates": [
                -0.896695013015206,
                -0.30168470821878224
            ],
            "index": 13
        },
        {
            "coordinates": [
                0.6569630281919797,
                0.06524699446321786
            ],
            "index": 14
        },
        {
            "coordinates": [
                1.0,
                0.5156116524472814
            ],
            "index": 15
        },
        {
            "coordinates": [
                0.5254648152362175,
                0.14915348258816058
            ],
            "index": 16
        },
        {
            "coordinates": [
                0.9657089251830735,
                -0.04632710364196375
            ],
            "index": 17
        },
        {
            "coordinates": [
                -0.3517998752076449,
                -0.4140155232150679
            ],
            "index": 18
        },
        {
            "coordinates": [
                -0.4232668518320123,
                0.2382214338560029
            ],
            "index": 19
        }
    ]
}